Introduction (ISL 1)
…
Figure 3: Wage increases with education level.

library(ISLR2)
library(tidyverse)

# Convert to tibble
Wage <- as_tibble(Wage) %>% print(width = Inf)

# A tibble: 3,000 × 11
    year   age maritl           race     education       region            
   <int> <int> <fct>            <fct>    <fct>           <fct>             
 1  2006    18 1. Never Married 1. White 1. < HS Grad    2. Middle Atlantic
 2  2004    24 1. Never Married 1. White 4. College Grad 2. Middle Atlantic
 3  2003    45 2. Married       1. White 3. Some College 2. Middle Atlantic
 4  2003    43 2. Married       3. Asian 4. College Grad 2. Middle Atlantic
 5  2005    50 4. Divorced      1. White 2. HS Grad      2. Middle Atlantic
 6  2008    54 2. Married       1. White 4. College Grad 2. Middle Atlantic
 7  2009    44 2. Married       4. Other 3. Some College 2. Middle Atlantic
 8  2008    30 1. Never Married 3. Asian 3. Some College 2. Middle Atlantic
 9  2006    41 1. Never Married 2. Black 3. Some College 2. Middle Atlantic
10  2004    52 2. Married       1. White 2. HS Grad      2. Middle Atlantic
   jobclass       health         health_ins logwage  wage
   <fct>          <fct>          <fct>        <dbl> <dbl>
 1 1. Industrial  1. <=Good      2. No         4.32  75.0
 2 2. Information 2. >=Very Good 2. No         4.26  70.5
 3 1. Industrial  1. <=Good      1. Yes        4.88 131. 
 4 2. Information 2. >=Very Good 1. Yes        5.04 155. 
 5 2. Information 1. <=Good      1. Yes        4.32  75.0
 6 2. Information 2. >=Very Good 1. Yes        4.85 127. 
 7 1. Industrial  2. >=Very Good 1. Yes        5.13 170. 
 8 2. Information 1. <=Good      1. Yes        4.72 112. 
 9 2. Information 2. >=Very Good 1. Yes        4.78 119. 
10 2. Information 2. >=Very Good 1. Yes        4.86 129. 
# … with 2,990 more rows
…
Figure 4: LagX is the percentage return for the previous X days.

plt.clf()

# Data information
help(Smarket)

# Convert to tibble
Smarket <- as_tibble(Smarket) %>% print(width = Inf)

# A tibble: 1,250 × 9
    Year   Lag1   Lag2   Lag3   Lag4   Lag5 Volume  Today Direction
   <dbl>  <dbl>  <dbl>  <dbl>  <dbl>  <dbl>  <dbl>  <dbl> <fct>    
 1  2001  0.381 -0.192 -2.62  -1.06   5.01    1.19  0.959 Up       
 2  2001  0.959  0.381 -0.192 -2.62  -1.06    1.30  1.03  Up       
 3  2001  1.03   0.959  0.381 -0.192 -2.62    1.41 -0.623 Down     
 4  2001 -0.623  1.03   0.959  0.381 -0.192   1.28  0.614 Up       
 5  2001  0.614 -0.623  1.03   0.959  0.381   1.21  0.213 Up       
 6  2001  0.213  0.614 -0.623  1.03   0.959   1.35  1.39  Up       
 7  2001  1.39   0.213  0.614 -0.623  1.03    1.44 -0.403 Down     
 8  2001 -0.403  1.39   0.213  0.614 -0.623   1.41  0.027 Up       
 9  2001  0.027 -0.403  1.39   0.213  0.614   1.16  1.30  Up       
10  2001  1.30   0.027 -0.403  1.39   0.213   1.23  0.287 Up       
# … with 1,240 more rows
…
