Nonlinear Models (ISL 7)
…
library(gtsummary)
library(ISLR2)
library(tidyverse)

# Convert to tibble
Wage <- as_tibble(Wage) %>% print(width = Inf)

# A tibble: 3,000 × 11
    year   age maritl           race     education       region            
   <int> <int> <fct>            <fct>    <fct>           <fct>             
 1  2006    18 1. Never Married 1. White 1. < HS Grad    2. Middle Atlantic
 2  2004    24 1. Never Married 1. White 4. College Grad 2. Middle Atlantic
 3  2003    45 2. Married       1. White 3. Some College 2. Middle Atlantic
 4  2003    43 2. Married       3. Asian 4. College Grad 2. Middle Atlantic
 5  2005    50 4. Divorced      1. White 2. HS Grad      2. Middle Atlantic
 6  2008    54 2. Married       1. White 4. College Grad 2. Middle Atlantic
 7  2009    44 2. Married       4. Other 3. Some College 2. Middle Atlantic
 8  2008    30 1. Never Married 3. Asian 3. Some College 2. Middle Atlantic
 9  2006    41 1. Never Married 2. Black 3. Some College 2. Middle Atlantic
10  2004    52 2. Married       1. White 2. HS Grad      2. Middle Atlantic
   jobclass       health         health_ins logwage  wage
   <fct>          <fct>          <fct>        <dbl> <dbl>
 1 1. Industrial  1. <=Good      2. No         4.32  75.0
 2 2. Information 2. >=Very Good 2. No         4.26  70.5
 3 1. Industrial  1. <=Good      1. Yes        4.88 131. 
 4 2. Information 2. >=Very Good 1. Yes        5.04 155. 
 5 2. Information 1. <=Good      1. Yes        4.32  75.0
 6 2. Information 2. >=Very Good 1. Yes        4.85 127. 
 7 1. Industrial  2. >=Very Good 1. Yes        5.13 170. 
 8 2. Information 1. <=Good      1. Yes        4.72 112. 
 9 2. Information 2. >=Very Good 1. Yes        4.78 119. 
10 2. Information 2. >=Very Good 1. Yes        4.86 129. 
# … with 2,990 more rows
…
