Linear Model Selection and Regularization (ISL 6)
…
library(GGally) # ggpairs function
library(ISLR2)
library(tidyverse)

# Cast to tibble
Credit <- as_tibble(Credit) %>% print(width = Inf)

# A tibble: 400 × 11
   Income Limit Rating Cards   Age Education Own   Student Married Region
    <dbl> <dbl>  <dbl> <dbl> <dbl>     <dbl> <fct> <fct>   <fct>   <fct> 
 1   14.9  3606    283     2    34        11 No    No      Yes     South 
 2  106.   6645    483     3    82        15 Yes   Yes     Yes     West  
 3  105.   7075    514     4    71        11 No    No      No      West  
 4  149.   9504    681     3    36        11 Yes   No      No      West  
 5   55.9  4897    357     2    68        16 No    No      Yes     South 
 6   80.2  8047    569     4    77        10 No    No      No      South 
 7   21.0  3388    259     2    37        12 Yes   No      No      East  
 8   71.4  7114    512     2    87         9 No    No      No      West  
 9   15.1  3300    266     5    66        13 Yes   No      No      South 
10   71.1  6819    491     3    41        19 Yes   Yes     Yes     East  
   Balance
     <dbl>
 1     333
 2     903
 3     580
 4     964
 5     331
 6    1151
 7     203
 8     872
 9     279
10    1350
# … with 390 more rows
…
