Machine Learning Workflow: Lasso Regression
…
There are 59 NAs for the salary. Let’s drop those cases. We are left with 263 data points.

Hitters.dropna(inplace = True)
Hitters.shape

(263, 20)

library(GGally)
library(ISLR2)
library(tidymodels)
library(tidyverse)

Hitters <- as_tibble(Hitters) %>% print(width = Inf)

# A tibble: 322 × 20
   AtBat  Hits HmRun  Runs   RBI Walks Years CAtBat CHits CHmRun CRuns  CRBI
   <int> <int> <int> <int> <int> <int> <int>  <int> <int>  <int> <int> <int>
 1   293    66     1    30    29    14     1    293    66      1    30    29
 2   315    81     7    24    38    39    14   3449   835     69   321   414
 3   479   130    18    66    72    76     3   1624   457     63   224   266
 4   496   141    20    65    78    37    11   5628  1575    225   828   838
 5   321    87    10    39    42    30     2    396   101     12    48    46
 6   594   169     4    74    51    35    11   4408  1133     19   501   336
 7   185    37     1    23     8    21     2    214    42      1    30     9
 8   298    73     0    24    24     7     3    509   108      0    41    37
 9   323    81     6    26    32     8     2    341    86      6    32    34
10   401    92    17    49    66    65    13   5206  1332    253   784   890
   CWalks League Division PutOuts Assists Errors Salary NewLeague
    <int> <fct>  <fct>      <int>   <int>  <int>  <dbl> <fct>    
 1     14 A      E            446      33     20   NA   A        
 2    375 N      W            632      43     10  475   N        
 3    263 A      W            880      82     14  480   A        
 4    354 N      E            200      11      3  500   N        
 5     33 N      E            805      40      4   91.5 N        
 6    194 A      W            282     421     25  750   A        
 7     24 N      E             76     127      7   70   A        
 8     12 A      W            121     283      9  100   A        
 9      8 N      W            143     290     19   75   N        
10    866 A      E              0       0      0 1100   A        
# … with 312 more rows
…
lambda_grid <-
  grid_regular(penalty(range = c(-2, 3), trans = log10_trans()), levels = 100)
lambda_grid

# A tibble: 100 × 1
   penalty
     <dbl>
 1  0.01  
 2  0.0112
 3  0.0126
 4  0.0142
 5  0.0159
 6  0.0179
 7  0.0201
 8  0.0226
 9  0.0254
10  0.0285
# … with 90 more rows
…
Run `show_notes(.Last.tune.result)` for more information.

Visualize CV criterion.

lasso_fit %>%
  collect_metrics() %>%
  print(width = Inf) %>%
  filter(.metric == "rmse") %>%
  ggplot(mapping = aes(x = penalty, y = mean)) + 
  geom_point() + 
  geom_line() + 
  labs(x = "Penalty", y = "CV RMSE") + 
  scale_x_log10(labels = scales::label_number())

# A tibble: 200 × 7
   penalty .metric .estimator    mean     n std_err .config               
     <dbl> <chr>   <chr>        <dbl> <int>   <dbl> <chr>                 
 1  0.01   rmse    standard   341.       10 33.2    Preprocessor1_Model001
 2  0.01   rsq     standard     0.472    10  0.0845 Preprocessor1_Model001
 3  0.0112 rmse    standard   341.       10 33.2    Preprocessor1_Model002
 4  0.0112 rsq     standard     0.472    10  0.0845 Preprocessor1_Model002
 5  0.0126 rmse    standard   341.       10 33.2    Preprocessor1_Model003
 6  0.0126 rsq     standard     0.472    10  0.0845 Preprocessor1_Model003
 7  0.0142 rmse    standard   341.       10 33.2    Preprocessor1_Model004
 8  0.0142 rsq     standard     0.472    10  0.0845 Preprocessor1_Model004
 9  0.0159 rmse    standard   341.       10 33.2    Preprocessor1_Model005
10  0.0159 rsq     standard     0.472    10  0.0845 Preprocessor1_Model005
# … with 190 more rows
…
