Machine Learning Workflow: Classifiers With Nonlinear Features
…
library(GGally)
library(ISLR2)
library(tidymodels)
library(tidyverse)

Default <- as_tibble(Default) %>%
  print(width = Inf)

# A tibble: 10,000 × 4
   default student balance income
   <fct>   <fct>     <dbl>  <dbl>
 1 No      No         730. 44362.
 2 No      Yes        817. 12106.
 3 No      No        1074. 31767.
 4 No      No         529. 35704.
 5 No      No         786. 38463.
 6 No      Yes        920.  7492.
 7 No      No         826. 24905.
 8 No      Yes        809. 17600.
 9 No      No        1161. 37469.
10 No      No           0  29275.
# … with 9,990 more rows
…
