Linear Regression (ISL 3)
…
library(GGally) # ggpairs function
library(tidyverse)

# Advertising
Advertising <- read_csv("../data/Advertising.csv",  col_select = TV:sales) %>% 
  print(width = Inf)

# A tibble: 200 × 4
      TV radio newspaper sales
   <dbl> <dbl>     <dbl> <dbl>
 1 230.   37.8      69.2  22.1
 2  44.5  39.3      45.1  10.4
 3  17.2  45.9      69.3   9.3
 4 152.   41.3      58.5  18.5
 5 181.   10.8      58.4  12.9
 6   8.7  48.9      75     7.2
 7  57.5  32.8      23.5  11.8
 8 120.   19.6      11.6  13.2
 9   8.6   2.1       1     4.8
10 200.    2.6      21.2  10.6
# … with 190 more rows
…
library(ISLR2)

# Credit
Credit <- as_tibble(Credit) %>% print(width = Inf)

# A tibble: 400 × 11
   Income Limit Rating Cards   Age Education Own   Student Married Region
    <dbl> <dbl>  <dbl> <dbl> <dbl>     <dbl> <fct> <fct>   <fct>   <fct> 
 1   14.9  3606    283     2    34        11 No    No      Yes     South 
 2  106.   6645    483     3    82        15 Yes   Yes     Yes     West  
 3  105.   7075    514     4    71        11 No    No      No      West  
 4  149.   9504    681     3    36        11 Yes   No      No      West  
 5   55.9  4897    357     2    68        16 No    No      Yes     South 
 6   80.2  8047    569     4    77        10 No    No      No      South 
 7   21.0  3388    259     2    37        12 Yes   No      No      East  
 8   71.4  7114    512     2    87         9 No    No      No      West  
 9   15.1  3300    266     5    66        13 Yes   No      No      South 
10   71.1  6819    491     3    41        19 Yes   Yes     Yes     East  
   Balance
     <dbl>
 1     333
 2     903
 3     580
 4     964
 5     331
 6    1151
 7     203
 8     872
 9     279
10    1350
# … with 390 more rows
…
Auto <- as_tibble(Auto) %>% print(width = Inf)

# A tibble: 392 × 9
     mpg cylinders displacement horsepower weight acceleration  year origin
   <dbl>     <int>        <dbl>      <int>  <int>        <dbl> <int>  <int>
 1    18         8          307        130   3504         12      70      1
 2    15         8          350        165   3693         11.5    70      1
 3    18         8          318        150   3436         11      70      1
 4    16         8          304        150   3433         12      70      1
 5    17         8          302        140   3449         10.5    70      1
 6    15         8          429        198   4341         10      70      1
 7    14         8          454        220   4354          9      70      1
 8    14         8          440        215   4312          8.5    70      1
 9    14         8          455        225   4425         10      70      1
10    15         8          390        190   3850          8.5    70      1
   name                     
   <fct>                    
 1 chevrolet chevelle malibu
 2 buick skylark 320        
 3 plymouth satellite       
 4 amc rebel sst            
 5 ford torino              
 6 ford galaxie 500         
 7 chevrolet impala         
 8 plymouth fury iii        
 9 pontiac catalina         
10 amc ambassador dpl       
# … with 382 more rows
…
